Baseline Model • fmrireg
…
Basic baseline model with b-splines and polynomials

TR <- 2
sframe <- sampling_frame(blocklens=c(100,100), TR)
bmodel <- baseline_model(basis="bs", degree=5, sframe=sframe)
bmodel

## $drift_term
## $varname
## [1] "baseline_bs_5"
## 
## $design_matrix
## # A tibble: 200 × 10
##    base_bs1_block_1 base_bs2_block_1 base_bs3_block_1 base_bs4_block_1
##               <dbl>            <dbl>            <dbl>            <dbl>
##  1           0              0               0             0           
##  2           0.0485         0.000990        0.0000101     0.0000000515
##  3           0.0931         0.00384         0.0000792     0.000000816 
##  4           0.134          0.00837         0.000262      0.00000409  
##  5           0.171          0.0144          0.000607      0.0000128   
##  6           0.205          0.0218          0.00116       0.0000309   
##  7           0.236          0.0304          0.00196       0.0000634   
##  8           0.264          0.0401          0.00305       0.000116    
##  9           0.288          0.0507          0.00446       0.000196    
## 10           0.310          0.0621          0.00621       0.000310    
## # ℹ 190 more rows
## # ℹ 6 more variables: base_bs5_block_1 <dbl>, base_bs1_block_2 <dbl>,
## #   base_bs2_block_2 <dbl>, base_bs3_block_2 <dbl>, base_bs4_block_2 <dbl>,
## #   base_bs5_block_2 <dbl>
## 
## $colind
## $colind[[1]]
## [1] 1 2 3 4 5
## 
…
## [112] 2 2 2 2 2 2 2 2 2 2 2 2 2 2 2 2 2 2 2 2 2 2 2 2 2 2 2 2 2 2 2 2 2 2 2 2 2
## [149] 2 2 2 2 2 2 2 2 2 2 2 2 2 2 2 2 2 2 2 2 2 2 2 2 2 2 2 2 2 2 2 2 2 2 2 2 2
## [186] 2 2 2 2 2 2 2 2 2 2 2 2 2 2 2
## 
## $expanded_blockids
##   [1] 1 1 1 1 1 1 1 1 1 1 1 1 1 1 1 1 1 1 1 1 1 1 1 1 1 1 1 1 1 1 1 1 1 1 1 1 1
##  [38] 1 1 1 1 1 1 1 1 1 1 1 1 1 1 1 1 1 1 1 1 1 1 1 1 1 1 1 1 1 1 1 1 1 1 1 1 1
##  [75] 1 1 1 1 1 1 1 1 1 1 1 1 1 1 1 1 1 1 1 1 1 1 1 1 1 1 2 2 2 2 2 2 2 2 2 2 2
## [112] 2 2 2 2 2 2 2 2 2 2 2 2 2 2 2 2 2 2 2 2 2 2 2 2 2 2 2 2 2 2 2 2 2 2 2 2 2
## [149] 2 2 2 2 2 2 2 2 2 2 2 2 2 2 2 2 2 2 2 2 2 2 2 2 2 2 2 2 2 2 2 2 2 2 2 2 2
## [186] 2 2 2 2 2 2 2 2 2 2 2 2 2 2 2
## Levels: 1 < 2
## 
## $design_matrix
## # A tibble: 200 × 2
##    constant_1 constant_2
##         <dbl>      <dbl>
##  1          1          0
##  2          1          0
##  3          1          0
##  4          1          0
##  5          1          0
##  6          1          0
##  7          1          0
##  8          1          0
##  9          1          0
## 10          1          0
## # ℹ 190 more rows
## 
## $nblocks
## [1] 2
## 
## $colind
## $colind[[1]]
## [1] 1
## 
…
## [112] 2 2 2 2 2 2 2 2 2 2 2 2 2 2 2 2 2 2 2 2 2 2 2 2 2 2 2 2 2 2 2 2 2 2 2 2 2
## [149] 2 2 2 2 2 2 2 2 2 2 2 2 2 2 2 2 2 2 2 2 2 2 2 2 2 2 2 2 2 2 2 2 2 2 2 2 2
## [186] 2 2 2 2 2 2 2 2 2 2 2 2 2 2 2
## 
## $expanded_blockids
##   [1] 1 1 1 1 1 1 1 1 1 1 1 1 1 1 1 1 1 1 1 1 1 1 1 1 1 1 1 1 1 1 1 1 1 1 1 1 1
##  [38] 1 1 1 1 1 1 1 1 1 1 1 1 1 1 1 1 1 1 1 1 1 1 1 1 1 1 1 1 1 1 1 1 1 1 1 1 1
##  [75] 1 1 1 1 1 1 1 1 1 1 1 1 1 1 1 1 1 1 1 1 1 1 1 1 1 1 2 2 2 2 2 2 2 2 2 2 2
## [112] 2 2 2 2 2 2 2 2 2 2 2 2 2 2 2 2 2 2 2 2 2 2 2 2 2 2 2 2 2 2 2 2 2 2 2 2 2
## [149] 2 2 2 2 2 2 2 2 2 2 2 2 2 2 2 2 2 2 2 2 2 2 2 2 2 2 2 2 2 2 2 2 2 2 2 2 2
## [186] 2 2 2 2 2 2 2 2 2 2 2 2 2 2 2
## Levels: 1 < 2
## 
## $design_matrix
## # A tibble: 200 × 2
##    constant_1 constant_2
##         <dbl>      <dbl>
##  1          1          0
##  2          1          0
##  3          1          0
##  4          1          0
##  5          1          0
##  6          1          0
##  7          1          0
##  8          1          0
##  9          1          0
## 10          1          0
## # ℹ 190 more rows
## 
## $nblocks
## [1] 2
## 
## $colind
## $colind[[1]]
## [1] 1
## 
…
##  [37] 137 138 139 140 141 142 143 144 145 146 147 148 149 150 151 152 153 154
##  [55] 155 156 157 158 159 160 161 162 163 164 165 166 167 168 169 170 171 172
##  [73] 173 174 175 176 177 178 179 180 181 182 183 184 185 186 187 188 189 190
##  [91] 191 192 193 194 195 196 197 198 199 200
## 
## 
## attr(,"class")
## [1] "block_term"  "matrix_term" "fmri_term"   "list"       
## 
## $baseline_bs_5
## $varname
## [1] "baseline_bs_5"
## 
## $design_matrix
## # A tibble: 200 × 10
##    base_bs1_block_1 base_bs2_block_1 base_bs3_block_1 base_bs4_block_1
##               <dbl>            <dbl>            <dbl>            <dbl>
##  1           0              0               0             0           
##  2           0.0485         0.000990        0.0000101     0.0000000515
##  3           0.0931         0.00384         0.0000792     0.000000816 
##  4           0.134          0.00837         0.000262      0.00000409  
##  5           0.171          0.0144          0.000607      0.0000128   
##  6           0.205          0.0218          0.00116       0.0000309   
##  7           0.236          0.0304          0.00196       0.0000634   
##  8           0.264          0.0401          0.00305       0.000116    
##  9           0.288          0.0507          0.00446       0.000196    
## 10           0.310          0.0621          0.00621       0.000310    
## # ℹ 190 more rows
## # ℹ 6 more variables: base_bs5_block_1 <dbl>, base_bs1_block_2 <dbl>,
## #   base_bs2_block_2 <dbl>, base_bs3_block_2 <dbl>, base_bs4_block_2 <dbl>,
## #   base_bs5_block_2 <dbl>
## 
## $colind
## $colind[[1]]
## [1] 1 2 3 4 5
## 
…
##  [37] 137 138 139 140 141 142 143 144 145 146 147 148 149 150 151 152 153 154
##  [55] 155 156 157 158 159 160 161 162 163 164 165 166 167 168 169 170 171 172
##  [73] 173 174 175 176 177 178 179 180 181 182 183 184 185 186 187 188 189 190
##  [91] 191 192 193 194 195 196 197 198 199 200
## 
## 
## attr(,"class")
## [1] "baseline_term" "matrix_term"   "fmri_term"     "list"         
## 
## $nuisance
## $varname
## [1] "nuisance"
## 
## $design_matrix
## # A tibble: 200 × 4
##    `nuisance#1#1` `nuisance#1#2` `nuisance#2#1` `nuisance#2#2`
##             <dbl>          <dbl>          <dbl>          <dbl>
##  1         -0.326         0.0602              0              0
##  2          1.25         -1.59                0              0
##  3         -0.135         1.37                0              0
##  4         -1.42         -0.111               0              0
##  5          0.310        -0.410               0              0
##  6         -1.01         -1.12                0              0
##  7          0.561        -0.0445              0              0
##  8         -1.88          2.24                0              0
##  9          0.747        -0.760               0              0
## 10          0.439         0.396               0              0
## # ℹ 190 more rows
## 
## $colind
## $colind[[1]]
## [1] 1 2
## 
## $colind[[2]]
## [1] 3 4
## 
…
