Event Models • fmrireg
…
## 
## $continuous
## [1] FALSE
## 
## attr(,"class")
## [1] "event_factor" "event_seq"   
## 
## 
## $subset
##  [1] TRUE TRUE TRUE TRUE TRUE TRUE TRUE TRUE TRUE TRUE TRUE TRUE TRUE TRUE TRUE
## [16] TRUE TRUE TRUE TRUE TRUE TRUE TRUE TRUE TRUE TRUE TRUE TRUE TRUE TRUE TRUE
## [31] TRUE TRUE
## 
## $event_table
## # A tibble: 32 × 1
##    stim  
##    <fct> 
##  1 tool  
##  2 scene 
##  3 tool  
##  4 face  
##  5 object
##  6 object
##  7 scene 
##  8 scene 
##  9 tool  
## 10 scene 
## # … with 22 more rows
## 
## $onsets
##  [1]   5  13  22  28  37  46  53  62  70  76  84  93  99 106 114 123   6  12  20
## [20]  27  36  44  51  59  66  73  79  85  91  99 108 116
## 
## $blockids
##  [1] 1 1 1 1 1 1 1 1 1 1 1 1 1 1 1 1 2 2 2 2 2 2 2 2 2 2 2 2 2 2 2 2
## 
…
## [1] FALSE
## 
## attr(,"class")
## [1] "event_factor" "event_seq"   
## 
## 
## $subset
##  [1] TRUE TRUE TRUE TRUE TRUE TRUE TRUE TRUE TRUE TRUE TRUE TRUE TRUE TRUE TRUE
## [16] TRUE TRUE TRUE TRUE TRUE TRUE TRUE TRUE TRUE TRUE TRUE TRUE TRUE TRUE TRUE
## [31] TRUE TRUE TRUE TRUE TRUE TRUE TRUE TRUE TRUE TRUE TRUE TRUE TRUE TRUE TRUE
## [46] TRUE TRUE TRUE TRUE TRUE TRUE TRUE TRUE TRUE TRUE TRUE TRUE TRUE TRUE TRUE
## [61] TRUE TRUE TRUE TRUE
## 
## $event_table
## # A tibble: 64 × 2
##    stim   task  
##    <fct>  <fct> 
##  1 object attend
##  2 scene  attend
##  3 tool   ignore
##  4 scene  ignore
##  5 face   ignore
##  6 tool   attend
##  7 face   ignore
##  8 object attend
##  9 tool   ignore
## 10 face   ignore
## # … with 54 more rows
## 
## $onsets
##  [1]   3   7  14  21  26  34  40  44  50  57  63  69  77  81  86  91  98 106 110
## [20] 114 122 130 136 144 152 159 167 171 178 183 187 191   4  10  18  24  28  34
## [39]  41  45  50  56  64  68  74  79  86  94 101 108 115 123 128 136 142 146 154
## [58] 161 169 176 180 188 194 199
## 
## $blockids
…
## 
## $onsets
##  [1]   6  15  22  28  36  45  52  58  64  71  80  87  96 105 112 119
## 
## $blockids
##  [1] 1 1 1 1 1 1 1 1 1 1 1 1 1 1 1 1
## 
## $durations
##  [1] 0 0 0 0 0 0 0 0 0 0 0 0 0 0 0 0
## 
## attr(,"class")
## [1] "event_term" "event_seq" 
## 
## $design_matrix
## # A tibble: 70 × 16
##    trialwise[0…¹ trial…² trial…³ trial…⁴ trial…⁵ trial…⁶ trial…⁷ trial…⁸ trial…⁹
##            <dbl>   <dbl>   <dbl>   <dbl>   <dbl>   <dbl>   <dbl>   <dbl>   <dbl>
##  1       0        0            0       0       0       0       0       0       0
##  2       0        0            0       0       0       0       0       0       0
##  3       0        0            0       0       0       0       0       0       0
##  4       0.00306  0            0       0       0       0       0       0       0
##  5       0.101    0            0       0       0       0       0       0       0
##  6       0.175    0            0       0       0       0       0       0       0
##  7       0.127    0            0       0       0       0       0       0       0
##  8       0.0575   0            0       0       0       0       0       0       0
##  9       0.0135   0.0361       0       0       0       0       0       0       0
## 10      -0.00775  0.156        0       0       0       0       0       0       0
## # … with 60 more rows, 7 more variables: `trialwise[10]` <dbl>,
## #   `trialwise[11]` <dbl>, `trialwise[12]` <dbl>, `trialwise[13]` <dbl>,
## #   `trialwise[14]` <dbl>, `trialwise[15]` <dbl>, `trialwise[16]` <dbl>, and
## #   abbreviated variable names ¹​`trialwise[01]`, ²​`trialwise[02]`,
## #   ³​`trialwise[03]`, ⁴​`trialwise[04]`, ⁵​`trialwise[05]`, ⁶​`trialwise[06]`,
## #   ⁷​`trialwise[07]`, ⁸​`trialwise[08]`, ⁹​`trialwise[09]`
## 
## $sampling_frame
## $blocklens
…
