Translating to AFNI 3dDeconvolve • fmrireg
…
bmodel <- baseline_model(basis="bs", degree=5, sframe=sframe)
print(bmodel)

## baseline_model 
##    name:  baseline_bs_5 
##    basis type:  bs 
##    degree:  5 
##    drift columns:  5 
##    constant columns:  1 
##    nuisance columns:  0 
##    total columns:  6 
##    design_matrix:  
## # A tibble: 70 × 6
##    constant_global base_bs1_block_1 base_bs2_block_1 base_bs3_block_1
##              <dbl>            <dbl>            <dbl>            <dbl>
##  1               1           0               0              0        
##  2               1           0.0684          0.00201        0.0000296
##  3               1           0.129           0.00769        0.000230 
##  4               1           0.182           0.0165         0.000752 
##  5               1           0.228           0.0281         0.00173  
##  6               1           0.268           0.0419         0.00327  
##  7               1           0.302           0.0576         0.00548  
##  8               1           0.331           0.0747         0.00843  
##  9               1           0.354           0.0929         0.0122   
## 10               1           0.373           0.112          0.0168   
## # ℹ 60 more rows
## # ℹ 2 more variables: base_bs4_block_1 <dbl>, base_bs5_block_1 <dbl>
…
