Baseline Model
…
TR <- 2
sframe <- sampling_frame(blocklens=c(100,100), TR)
bmodel <- baseline_model(basis="bs", degree=5, sframe=sframe)
print(bmodel)

## baseline_model 
##    name:  baseline_bs_5 
##    basis type:  bs 
##    degree:  5 
##    drift columns:  10 
##    constant columns:  2 
##    nuisance columns:  0 
##    total columns:  12 
##    design_matrix:  
## # A tibble: 200 x 12
##    constant_1 constant_2 base_bs1_block_1 base_bs2_block_1 base_bs3_block_1
##         <dbl>      <dbl>            <dbl>            <dbl>            <dbl>
##  1          1          0           0              0               0        
##  2          1          0           0.0485         0.000990        0.0000101
##  3          1          0           0.0931         0.00384         0.0000792
##  4          1          0           0.134          0.00837         0.000262 
##  5          1          0           0.171          0.0144          0.000607 
##  6          1          0           0.205          0.0218          0.00116  
##  7          1          0           0.236          0.0304          0.00196  
##  8          1          0           0.264          0.0401          0.00305  
##  9          1          0           0.288          0.0507          0.00446  
## 10          1          0           0.310          0.0621          0.00621  
## #  with 190 more rows, and 7 more variables: base_bs4_block_1 <dbl>,
## #   base_bs5_block_1 <dbl>, base_bs1_block_2 <dbl>,
## #   base_bs2_block_2 <dbl>, base_bs3_block_2 <dbl>,
## #   base_bs4_block_2 <dbl>, base_bs5_block_2 <dbl>
…
